{
  "name": "authentication-svc",
  "$schema": "../../node_modules/nx/schemas/project-schema.json",
  "sourceRoot": "apps/authentication-svc/src",
  "projectType": "application",
  "targets": {
    "build": {
      "executor": "@nx/webpack:webpack",
      "outputs": ["{options.outputPath}"],
      "defaultConfiguration": "production",
      "options": {
        "target": "node",
        "compiler": "tsc",
        "outputPath": "dist/apps/authentication-svc",
        "main": "apps/authentication-svc/src/main.ts",
        "tsConfig": "apps/authentication-svc/tsconfig.app.json",
        "assets": ["apps/authentication-svc/src/assets"],
        "isolatedConfig": true,
        "webpackConfig": "apps/authentication-svc/webpack.config.js"
      },
      "configurations": {
        "development": {},
        "production": {}
      }
    },
    "serve": {
      "executor": "@nx/js:node",
      "defaultConfiguration": "development",
      "options": {
        "buildTarget": "authentication-svc:build"
      },
      "configurations": {
        "development": {
          "buildTarget": "authentication-svc:build:development"
        },
        "production": {
          "buildTarget": "authentication-svc:build:production"
        }
      }
    },
    "lint": {
      "executor": "@nx/linter:eslint",
      "outputs": ["{options.outputFile}"],
      "options": {
        "lintFilePatterns": ["apps/authentication-svc/**/*.ts"]
      }
    },
    "test": {
      "executor": "@nx/jest:jest",
      "outputs": ["{workspaceRoot}/coverage/{projectRoot}"],
      "options": {
        "jestConfig": "apps/authentication-svc/jest.config.ts",
        "passWithNoTests": true
      },
      "configurations": {
        "ci": {
          "ci": true,
          "codeCoverage": true
        }
      }
    },
    "typeorm": {
      "executor": "nx:run-commands",
      "outputs": [],
      "options": {
        "command": "ts-node -r tsconfig-paths/register --project tsconfig.app.json ../../node_modules/typeorm/cli.js",
        "cwd": "apps/authentication-svc"
      }
    },
    "migration-create": {
      "executor": "nx:run-commands",
      "outputs": [],
      "options": {
        "command": "nx run authentication-svc:typeorm migration:create ./migrations/{args.name}",
        "cwd": "apps/authentication-svc"
      }
    },
    "migration-gen": {
      "executor": "nx:run-commands",
      "outputs": [],
      "options": {
        "command": "nx run authentication-svc:typeorm migration:generate ./migrations/{args.name} -d ./typeorm.config.ts",
        "cwd": "apps/authentication-svc"
      }
    },
    "migration-run": {
      "executor": "nx:run-commands",
      "outputs": [],
      "options": {
        "command": "nx run api:typeorm migration:run -d ./typeorm.config.ts",
        "cwd": "apps/authentication-svc"
      }
    }
  },
  "tags": []
}
