{
  "name": "bid-logger",
  "$schema": "../../node_modules/nx/schemas/project-schema.json",
  "sourceRoot": "libs/bid-logger/src",
  "projectType": "library",
  "targets": {
    "lint": {
      "executor": "@nx/linter:eslint",
      "outputs": ["{options.outputFile}"],
      "options": {
        "lintFilePatterns": ["libs/bid-logger/**/*.ts"]
      }
    },
    "test": {
      "executor": "@nx/jest:jest",
      "outputs": ["{workspaceRoot}/coverage/{projectRoot}"],
      "options": {
        "jestConfig": "libs/bid-logger/jest.config.ts",
        "passWithNoTests": true
      },
      "configurations": {
        "ci": {
          "ci": true,
          "codeCoverage": true
        }
      }
    }
  },
  "tags": []
}
